{
	"sprites":{
		"rows":3,
		"columns":14,
		"width":56,
		"height":57
	},
	"texts":[
		"flat",
		"bloodshed",
		"deep",
		"catch",
		"trust",
		"vat",
		"dawn",
		"wage",
		"mist",
		"beef",
		"folk",
		"pat",
		"mood",
		"pool",
		"drown",
		"torch",
		"grand",
		"blind",
		"clash",
		"snap",
		"seal",
		"live",
		"net",
		"chop",
		"black",
		"glass",
		"link",
		"rate",
		"fade",
		"need",
		"pan",
		"age",
		"pride",
		"pace",
		"thought",
		"fuel",
		"sword",
		"step",
		"lay",
		"wolf",
		"fate",
		"peel",
		"pill",
		"health",
		"load",
		"preach",
		"tract",
		"tire",
		"swear",
		"bald",
		"climb",
		"cheat",
		"salt",
		"crutch",
		"point",
		"pie",
		"race",
		"start",
		"stall",
		"desk",
		"shed",
		"maze",
		"screw",
		"trip",
		"tool",
		"year",
		"frank",
		"front",
		"give",
		"duke",
		"groan",
		"lick",
		"pray",
		"knot",
		"inn",
		"coerce",
		"throat",
		"voice",
		"death"	
	]
}